﻿{
  "Type": "respository",
  "Name": "respoistory",
  "OutputPath": "\\Repository\\ModelRepository\\",
  "SurrogateIdentifier": "##",
  "Surrogates": [
    {
      "Name": "table",
      "Type": "input",
      "Value": ""
    },
    {
      "Name": "Namespace",
      "Type": "value",
      "Value": "GenRepo.Repository.ModelRepository"
    }
  ],
  "Code": [
    "using Microsoft.EntityFrameworkCore;",
    "namespace ##Namespace##",
    "\\{",
    "    public partial class ##table##Repository<TContext> : GenRepo<TContext>, IGenRepo",
    "       where TContext : DbContext",
    "    \\{",
    "           public ##table##Repository(TContext context)",
    "               : base(context) \\{\\}",
    "    \\}",
    "\\}"
  ]
}
